%!PS-Adobe-2.0 EPSF-2.0
%%BoundingBox:  0 0 567 278
%%Title: /home/smfx/SRdetector/NewGeom17m/TotEdep80Gev0.5mm.eps: Canvas_1
%%Creator: ROOT Version 5.34/07
%%CreationDate: Mon Nov 30 20:52:34 2015
%%EndComments
%%BeginProlog
80 dict begin
/s {stroke} def /l {lineto} def /m {moveto} def /t {translate} def
/r {rotate} def /rl {roll}  def /R {repeat} def
/d {rlineto} def /rm {rmoveto} def /gr {grestore} def /f {eofill} def
/c {setrgbcolor} def /black {0 setgray} def /sd {setdash} def
/cl {closepath} def /sf {scalefont setfont} def /lw {setlinewidth} def
/box {m dup 0 exch d exch 0 d 0 exch neg d cl} def
/NC{systemdict begin initclip end}def/C{NC box clip newpath}def
/bl {box s} def /bf {box f} def /Y { 0 exch d} def /X { 0 d} def 
/K {{pop pop 0 moveto} exch kshow} bind def
/ita {/ang 15 def gsave [1 0 ang dup sin exch cos div 1 0 0] concat} def 
/mp {newpath /y exch def /x exch def} def
/side {[w .77 mul w .23 mul] .385 w mul sd w 0 l currentpoint t -144 r} def
/mr {mp x y w2 0 360 arc} def /m24 {mr s} def /m20 {mr f} def
/mb {mp x y w2 add m w2 neg 0 d 0 w neg d w 0 d 0 w d cl} def
/mt {mp x y w2 add m w2 neg w neg d w 0 d cl} def
/m21 {mb f} def /m25 {mb s} def /m22 {mt f} def /m26{mt s} def
/m23 {mp x y w2 sub m w2 w d w neg 0 d cl f} def
/m27 {mp x y w2 add m w3 neg w2 neg d w3 w2 neg d w3 w2 d cl s} def
/m28 {mp x w2 sub y w2 sub w3 add m w3 0 d  0 w3 neg d w3 0 d 0 w3 d w3 0 d  0 w3 d w3 neg 0 d 0 w3 d w3 neg 0 d 0 w3 neg d w3 neg 0 d cl s } def
/m29 {mp gsave x w2 sub y w2 add w3 sub m currentpoint t 4 {side} repeat cl fill gr} def
/m30 {mp gsave x w2 sub y w2 add w3 sub m currentpoint t 4 {side} repeat cl s gr} def
/m31 {mp x y w2 sub m 0 w d x w2 sub y m w 0 d x w2 sub y w2 add m w w neg d x w2 sub y w2 sub m w w d s} def
/m32 {mp x y w2 sub m w2 w d w neg 0 d cl s} def
/m33 {mp x y w2 add m w3 neg w2 neg d w3 w2 neg d w3 w2 d cl f} def
/m34 {mp x w2 sub y w2 sub w3 add m w3 0 d  0 w3 neg d w3 0 d 0 w3 d w3 0 d  0 w3 d w3 neg 0 d 0 w3 d w3 neg 0 d 0 w3 neg d w3 neg 0 d cl f } def
/m2 {mp x y w2 sub m 0 w d x w2 sub y m w 0 d s} def
/m5 {mp x w2 sub y w2 sub m w w d x w2 sub y w2 add m w w neg d s} def
/reEncode {exch findfont dup length dict begin {1 index /FID eq  {pop pop} {def} ifelse } forall /Encoding exch def currentdict end dup /FontName get exch definefont pop } def [/Times-Bold /Times-Italic /Times-BoldItalic /Helvetica /Helvetica-Oblique
 /Helvetica-Bold /Helvetica-BoldOblique /Courier /Courier-Oblique /Courier-Bold /Courier-BoldOblique /Times-Roman /AvantGarde-Book /AvantGarde-BookOblique /AvantGarde-Demi /AvantGarde-DemiOblique /Bookman-Demi /Bookman-DemiItalic /Bookman-Light
 /Bookman-LightItalic /Helvetica-Narrow /Helvetica-Narrow-Bold /Helvetica-Narrow-BoldOblique /Helvetica-Narrow-Oblique /NewCenturySchlbk-Roman /NewCenturySchlbk-Bold /NewCenturySchlbk-BoldItalic /NewCenturySchlbk-Italic /Palatino-Bold
 /Palatino-BoldItalic /Palatino-Italic /Palatino-Roman ] {ISOLatin1Encoding reEncode } forall
%%EndProlog
%%BeginSetup
%%EndSetup
newpath  gsave  .25 .25 scale  gsave  0 0 t black[  ] 0 sd 3 lw 1 1 1 c 2268 1111 0 0 bf black 1 1 1 c 1814 889 227 111 bf black 1814 889 227 111 bl 1 1 1 c 1814 889 227 111 bf black 1814 889 227 111 bl 227 111 m 1814 X s[ 4 8] 0 sd 232 1000 m -889 Y
 s 490 1000 m -889 Y s 747 1000 m -889 Y s 1005 1000 m -889 Y s 1263 1000 m -889 Y s 1520 1000 m -889 Y s 1778 1000 m -889 Y s 2036 1000 m -889 Y s 232 1000 m -889 Y s 2036 1000 m -889 Y s[  ] 0 sd 227 111 m 889 Y s 1 1 1 c black /w 2 def /w2 {w 2
 div} def /w3 {w 3 div} def 229 111 m20 235 358 m20 240 372 m20 245 464 m20 250 488 m20 255 495 m20 260 532 m20 265 548 m20 271 599 m20 276 622 m20 281 651 m20 286 664 m20 291 693 m20 296 710 m20 302 683 m20 307 754 m20 312 764 m20 317 782 m20 322
 774 m20 327 784 m20 332 813 m20 338 804 m20 343 841 m20 348 893 m20 353 870 m20 358 885 m20 363 869 m20 369 914 m20 374 895 m20 379 857 m20 384 870 m20 389 908 m20 394 934 m20 399 864 m20 405 913 m20 410 905 m20 415 876 m20 420 880 m20 425 922 m20
 430 878 m20 436 892 m20 441 926 m20 446 872 m20 451 906 m20 456 837 m20 461 858 m20 466 865 m20 472 882 m20 477 836 m20 482 806 m20 487 822 m20 492 843 m20 497 790 m20 503 798 m20 508 817 m20 513 770 m20 518 774 m20 523 775 m20 528 729 m20 533 754
 m20 539 745 m20 544 696 m20 549 694 m20 554 716 m20 559 690 m20 564 668 m20 570 656 m20 575 704 m20 580 649 m20 585 638 m20 590 661 m20 595 654 m20 600 585 m20 606 602 m20 611 572 m20 616 594 m20 621 558 m20 626 609 m20 631 561 m20 637 562 m20 642
 566 m20 647 546 m20 652 526 m20 657 556 m20 662 518 m20 667 499 m20 673 502 m20 678 491 m20 683 480 m20 688 482 m20 693 455 m20 698 418 m20 704 452 m20 709 438 m20 714 434 m20 719 393 m20 724 387 m20 729 410 m20 734 392 m20 740 388 m20 745 384 m20
 750 368 m20 755 363 m20 760 338 m20 765 346 m20 771 349 m20 776 340 m20 781 336 m20 786 328 m20 791 327 m20 796 338 m20 801 307 m20 807 319 m20 812 318 m20 817 292 m20 822 287 m20 827 296 m20 832 278 m20 838 284 m20 843 252 m20 848 251 m20 853 250
 m20 858 265 m20 863 246 m20 868 249 m20 874 250 m20 879 246 m20 884 252 m20 889 233 m20 894 230 m20 899 212 m20 905 228 m20 910 227 m20 915 213 m20 920 210 m20 925 212 m20 930 205 m20 935 200 m20 941 201 m20 946 214 m20 951 192 m20 956 194 m20 961
 177 m20 966 204 m20 972 196 m20 977 185 m20 982 175 m20 987 182 m20 992 173 m20 997 180 m20 1002 171 m20 1008 164 m20 1013 159 m20 1018 174 m20 1023 162 m20 1028 162 m20 1033 155 m20 1039 158 m20 1044 156 m20 1049 151 m20 1054 154 m20 1059 159 m20
 1064 150 m20 1069 145 m20 1075 145 m20 1080 150 m20 1085 152 m20 1090 142 m20 1095 148 m20 1100 138 m20 1106 140 m20 1111 144 m20 1116 140 m20 1121 137 m20 1126 137 m20 1131 146 m20 1136 135 m20 1142 140 m20 1147 130 m20 1152 131 m20 1157 135 m20
 1162 131 m20 1167 130 m20 1173 136 m20 1178 129 m20 1183 132 m20 1188 132 m20 1193 124 m20 1198 124 m20 1203 128 m20 1209 124 m20 1214 119 m20 1219 122 m20 1224 130 m20 1229 128 m20 1234 124 m20 1240 124 m20 1245 124 m20 1250 120 m20 1255 122 m20
 1260 122 m20 1265 121 m20 1270 124 m20 1276 125 m20 1281 118 m20 1286 127 m20 1291 119 m20 1296 120 m20 1301 122 m20 1307 118 m20 1312 118 m20 1317 119 m20 1322 117 m20 1327 116 m20 1332 115 m20 1337 116 m20 1343 117 m20 1348 119 m20 1353 113 m20
 1358 116 m20 1363 117 m20 1368 115 m20 1374 116 m20 1379 117 m20 1384 116 m20 1389 113 m20 1394 113 m20 1399 120 m20 1404 116 m20 1410 115 m20 1415 116 m20 1420 114 m20 1425 114 m20 1430 114 m20 1435 113 m20 1441 114 m20 1446 112 m20 1451 114 m20
 1456 113 m20 1461 113 m20 1466 112 m20 1471 115 m20 1477 114 m20 1482 112 m20 1487 114 m20 1492 117 m20 1497 114 m20 1502 112 m20 1508 114 m20 1513 114 m20 1518 112 m20 1523 112 m20 1528 112 m20 1533 113 m20 1538 113 m20 1544 112 m20 1549 111 m20
 1554 112 m20 1559 111 m20 1564 112 m20 1569 111 m20 1575 112 m20 1580 112 m20 1585 113 m20 1590 113 m20 1595 111 m20 1600 112 m20 1605 112 m20 1611 112 m20 1616 113 m20 1621 111 m20 1626 112 m20 1631 111 m20 1636 112 m20 1642 111 m20 1647 112 m20
 1652 112 m20 1657 111 m20 1662 112 m20 1667 111 m20 1672 112 m20 1678 111 m20 1683 111 m20 1688 111 m20 1693 111 m20 1698 111 m20 1703 111 m20 1709 111 m20 1714 111 m20 1719 111 m20 1724 111 m20 1729 112 m20 1734 111 m20 1739 111 m20 1745 111 m20
 1750 112 m20 1755 112 m20 1760 111 m20 1765 111 m20 1770 111 m20 1776 111 m20 1781 111 m20 1786 111 m20 1791 111 m20 1796 112 m20 1801 111 m20 1806 111 m20 1812 111 m20 1817 111 m20 1822 111 m20 1827 112 m20 1832 111 m20 1837 111 m20 1843 111 m20
 1848 111 m20 1853 111 m20 1858 112 m20 1863 111 m20 1868 111 m20 1873 111 m20 1879 111 m20 1884 111 m20 1889 111 m20 1894 111 m20 1899 111 m20 1904 111 m20 1910 111 m20 1915 111 m20 1920 111 m20 1925 111 m20 1930 111 m20 1935 111 m20 1940 111 m20
 1946 112 m20 1951 111 m20 1956 111 m20 1961 111 m20 1966 111 m20 1971 111 m20 1977 111 m20 1982 111 m20 1987 111 m20 1992 111 m20 1997 111 m20 2002 111 m20 2007 111 m20 2013 111 m20 2018 111 m20 2023 111 m20 2028 111 m20 2033 111 m20 2038 111 m20 1
 1 1 c black 1 1 1 c 229 111 m 6 260 d 5 15 d 5 94 d 5 24 d 5 7 d 5 37 d 5 17 d 6 52 d 5 23 d 5 30 d 5 14 d 5 29 d 5 17 d 6 -27 d 5 71 d 5 11 d 5 18 d 5 -8 d 5 10 d 5 30 d 6 -10 d 5 38 d 5 53 d 5 -24 d 5 16 d 5 -17 d 6 46 d 5 -19 d 5 -39 d 5 13 d 5
 39 d 5 27 d 5 -71 d 6 49 d 5 -8 d 5 -29 d 5 3 d 5 43 d 5 -45 d 6 14 d 5 35 d 5 -55 d 5 35 d 5 -70 d 5 22 d 5 6 d 6 18 d 5 -47 d 5 -31 d 5 17 d 5 21 d 5 -53 d 6 7 d 5 20 d 5 -48 d 5 4 d 5 1 d 5 -47 d 5 25 d 6 -8 d 5 -50 d 5 -2 d 5 22 d 5 -27 d 5 -21
 d 6 -13 d 5 49 d 5 -56 d 5 -12 d 5 24 d 5 -7 d 5 -70 d 6 17 d 5 -30 d 5 22 d 5 -36 d 5 51 d 5 -49 d 6 1 d 5 4 d 5 -20 d 5 -20 d 5 31 d 5 -39 d 5 -20 d 6 4 d 5 -12 d 5 -12 d 5 3 d 5 -28 d 5 -37 d 6 34 d 5 -14 d 5 -4 d 5 -42 d 5 -6 d 5 23 d 5 -18 d 6
 -5 d 5 -4 d 5 -15 d 5 -6 d 5 -25 d 5 7 d 6 4 d 5 -10 d 5 -4 d 5 -8 d 5 -1 d 5 11 d 5 -31 d 6 12 d 5 -1 d 5 -27 d 5 -5 d 5 9 d 5 -19 d 6 7 d 5 -34 d 5 X 5 -1 d 5 15 d 5 -20 d 5 4 d 6 1 d 5 -5 d 5 6 d 5 -19 d 5 -3 d 5 -18 d 6 16 d 5 -1 d 5 -15 d 5 -3
 d 5 2 d 5 -7 d 5 -5 d 6 1 d 5 13 d 5 -23 d 5 2 d 5 -17 d 5 28 d 6 -9 d 5 -11 d 5 -10 d 5 7 d 5 -9 d 5 7 d 5 -10 d 6 -7 d 5 -5 d 5 15 d 5 -12 d 5 X 5 -7 d 6 2 d 5 -1 d 5 -6 d 5 4 d 5 5 d 5 -9 d 5 -6 d 6 X 5 5 d 5 3 d 5 -12 d 5 7 d 5 -10 d 6 2 d 5 4 d
 5 -5 d 5 -3 d 5 X 5 10 d 5 -12 d 6 5 d 5 -10 d 5 1 d 5 4 d 5 -4 d 5 -1 d 6 7 d 5 -8 d 5 2 d 5 X 5 -8 d 5 X 5 4 d 6 -4 d 5 -6 d 5 4 d 5 8 d 5 -2 d 5 -4 d 11 X 5 -5 d 5 3 d 5 X 5 -1 d 5 3 d 6 1 d 5 -7 d 5 9 d 5 -9 d 5 1 d 5 2 d 6 -4 d 5 X 5 1 d 5 -2 d
 5 -1 d 5 -1 d 5 1 d 6 1 d 5 2 d 5 -7 d 5 4 d 5 1 d 5 -2 d 6 1 d 5 1 d 5 -1 d 5 -4 d 5 X 5 9 d 5 -5 d 6 -1 d 5 1 d 5 -2 d 5 -1 d 5 1 d 5 -2 d 6 1 d 5 -3 d 5 3 d 5 -1 d 5 X 5 -1 d 5 4 d 6 -2 d 5 -3 d 5 3 d 5 4 d 5 -4 d 5 -2 d 6 2 d 5 X 5 -3 d 5 X 5 1
 d 5 1 d 5 X 6 -1 d 5 -2 d 5 1 d 5 -1 d 5 2 d 5 -2 d 6 1 d 5 X 5 2 d 5 X 5 -3 d 5 1 d 11 X 5 2 d 5 -3 d 5 1 d 5 -1 d 5 1 d 6 -1 d 5 2 d 5 -1 d 5 -1 d 5 1 d 5 -1 d 5 2 d 6 -2 d 46 X 5 1 d 5 -1 d 11 X 5 1 d 5 X 5 -1 d 31 X 5 1 d 5 -1 d 21 X 5 1 d 5 -1
 d 21 X 5 1 d 5 -1 d 77 X 6 1 d 5 -1 d 87 X -360 X -6 1 d -5 -1 d -15 X -5 1 d -5 -1 d -21 X -5 1 d -5 -1 d -16 X -5 1 d -5 X -5 -1 d -11 X -5 1 d -5 -1 d -10 X -5 1 d -16 X -5 -1 d -5 X -5 1 d -16 X -5 3 d -5 -3 d -5 -1 d -5 1 d -6 1 d -5 -1 d -15 X
 -5 -1 d -5 1 d -6 X -5 1 d -5 -1 d -5 1 d -5 1 d -5 -1 d -6 1 d -5 4 d -5 -6 d -5 X -5 2 d -5 1 d -5 -1 d -6 -1 d -5 2 d -5 X -5 -3 d -5 5 d -5 -2 d -6 X -5 -2 d -5 2 d -5 X -5 2 d -5 -1 d -5 X -6 3 d -5 -2 d -5 X -5 7 d -5 -8 d -5 6 d -6 -1 d -5 -2
 d -5 1 d -5 X -5 -3 d -5 4 d -11 X -5 3 d -5 2 d -5 -6 d -5 -3 d -5 4 d -6 3 d -5 -3 d -5 X -5 7 d -5 X -5 -2 d -5 6 d -6 -5 d -5 X -5 4 d -5 -4 d -5 X -5 8 d -6 -4 d -5 10 d -5 -8 d -5 X -5 2 d -5 5 d -5 -4 d -6 -2 d -5 9 d -5 -6 d -5 10 d -5 -2 d
 -5 -5 d -6 X -5 5 d -5 8 d -5 -4 d -5 -3 d -5 5 d -5 1 d -6 -2 d -5 6 d -5 X -5 11 d -5 -14 d -5 5 d -6 7 d -5 8 d -5 -6 d -5 9 d -5 -7 d -5 9 d -5 10 d -6 8 d -5 -26 d -5 16 d -5 -2 d -5 21 d -5 -12 d -6 X -5 4 d -5 7 d -5 -2 d -5 3 d -5 13 d -5 1
 d -6 -15 d -5 17 d -5 3 d -5 18 d -5 -6 d -5 5 d -6 -1 d -5 -4 d -5 19 d -5 -14 d -5 X -5 1 d -5 32 d -6 -7 d -5 18 d -5 -9 d -5 5 d -5 26 d -5 X -6 -11 d -5 29 d -5 -10 d -5 1 d -5 8 d -5 3 d -5 9 d -6 -3 d -5 -7 d -5 24 d -5 5 d -5 15 d -5 4 d -6
 5 d -5 17 d -5 -22 d -5 5 d -5 41 d -5 4 d -5 13 d -6 -33 d -5 36 d -5 27 d -5 -3 d -5 11 d -5 11 d -6 -3 d -5 19 d -5 37 d -5 -29 d -5 19 d -5 19 d -5 -4 d -6 X -5 47 d -5 -50 d -5 35 d -5 -21 d -5 29 d -6 -17 d -5 68 d -5 7 d -5 -23 d -5 11 d -5
 54 d -5 -47 d -6 12 d -5 21 d -5 26 d -5 -21 d -5 2 d -5 47 d -6 9 d -5 -24 d -5 45 d -5 -1 d -5 -4 d -5 46 d -5 -19 d -6 -7 d -5 52 d -5 -20 d -5 -17 d -5 30 d -5 46 d -6 -17 d -5 -7 d -5 -21 d -5 68 d -5 -34 d -5 53 d -5 -33 d -6 -14 d -5 43 d -5
 -41 d -5 -3 d -5 28 d -5 8 d -6 -48 d -5 69 d -5 -26 d -5 -38 d -5 -12 d -5 37 d -5 19 d -6 -44 d -5 15 d -5 -15 d -5 23 d -5 -51 d -5 -37 d -6 9 d -5 -29 d -5 -9 d -5 8 d -5 -18 d -5 -10 d -5 -70 d -6 27 d -5 -17 d -5 -28 d -5 -13 d -5 -29 d -5 -22
 d -6 -50 d -5 -16 d -5 -36 d -5 -6 d -5 -24 d -5 -90 d -5 -14 d -6 -234 d cl s black 1 1 1 c black 227 111 m 5 X 247 Y 5 X 14 Y 5 X 92 Y 5 X 24 Y 6 X 7 Y 5 X 37 Y 5 X 16 Y 5 X 51 Y 5 X 23 Y 5 X 29 Y 5 X 13 Y 6 X 29 Y 5 X 17 Y 5 X -27 Y 5 X 71 Y 5 X
 10 Y 5 X 18 Y 6 X -8 Y 5 X 10 Y 5 X 29 Y 5 X -9 Y 5 X 37 Y 5 X 52 Y 5 X -23 Y 6 X 15 Y 5 X -16 Y 5 X 45 Y 5 X -19 Y 5 X -38 Y 5 X 13 Y 6 X 38 Y 5 X 26 Y 5 X -70 Y 5 X 49 Y 5 X -8 Y 5 X -29 Y 5 X 4 Y 6 X 42 Y 5 X -44 Y 5 X 14 Y 5 X 34 Y 5 X -54 Y 5 X
 34 Y 6 X -69 Y 5 X 21 Y 5 X 7 Y 5 X 17 Y 5 X -46 Y 5 X -30 Y 5 X 16 Y 6 X 21 Y 5 X -53 Y 5 X 8 Y 5 X 19 Y 5 X -47 Y 5 X 4 Y 6 X 1 Y 5 X -46 Y 5 X 25 Y 5 X -9 Y 5 X -49 Y 5 X -2 Y 5 X 22 Y 6 X -26 Y 5 X -22 Y 5 X -12 Y 5 X 48 Y 5 X -55 Y 5 X -11 Y 6
 X 23 Y 5 X -7 Y 5 X -69 Y 5 X 17 Y 5 X -30 Y 5 X 22 Y 5 X -36 Y 6 X 51 Y 5 X -48 Y 5 X 1 Y 5 X 4 Y 5 X -20 Y 5 X -20 Y 6 X 30 Y 5 X -38 Y 5 X -19 Y 5 X 3 Y 5 X -11 Y 5 X -11 Y 5 X 2 Y 6 X -27 Y 5 X -37 Y 5 X 34 Y 5 X -14 Y 5 X -4 Y 5 X -41 Y 6 X -6
 Y 5 X 23 Y 5 X -18 Y 5 X -4 Y 5 X -4 Y 5 X -16 Y 5 X -5 Y 6 X -25 Y 5 X 8 Y 5 X 3 Y 5 X -9 Y 5 X -4 Y 5 X -8 Y 6 X -1 Y 5 X 11 Y 5 X -31 Y 5 X 12 Y 5 X -1 Y 5 X -26 Y 5 X -5 Y 6 X 9 Y 5 X -18 Y 5 X 6 Y 5 X -32 Y 5 X -1 Y 5 X -1 Y 6 X 15 Y 5 X -19 Y
 5 X 3 Y 5 X 1 Y 5 X -4 Y 5 X 6 Y 5 X -19 Y 6 X -3 Y 5 X -18 Y 5 X 16 Y 5 X -1 Y 5 X -14 Y 5 X -3 Y 6 X 2 Y 5 X -7 Y 5 X -5 Y 5 X 1 Y 5 X 13 Y 5 X -22 Y 5 X 2 Y 6 X -17 Y 5 X 27 Y 5 X -8 Y 5 X -11 Y 5 X -10 Y 5 X 7 Y 6 X -9 Y 5 X 7 Y 5 X -9 Y 5 X -7
 Y 5 X -5 Y 5 X 15 Y 5 X -12 Y 11 X -7 Y 5 X 3 Y 5 X -2 Y 5 X -5 Y 5 X 3 Y 6 X 5 Y 5 X -9 Y 5 X -5 Y 10 X 5 Y 5 X 2 Y 5 X -10 Y 6 X 6 Y 5 X -10 Y 5 X 2 Y 5 X 4 Y 5 X -4 Y 5 X -3 Y 11 X 9 Y 5 X -11 Y 5 X 5 Y 5 X -10 Y 5 X 1 Y 5 X 4 Y 6 X -4 Y 5 X -1 Y
 5 X 6 Y 5 X -7 Y 5 X 3 Y 11 X -8 Y 10 X 4 Y 5 X -4 Y 5 X -5 Y 5 X 3 Y 5 X 8 Y 6 X -2 Y 5 X -4 Y 15 X -4 Y 5 X 2 Y 11 X -1 Y 5 X 3 Y 5 X 1 Y 5 X -7 Y 5 X 9 Y 5 X -8 Y 6 X 1 Y 5 X 2 Y 5 X -4 Y 10 X 1 Y 5 X -2 Y 6 X -1 Y 5 X -1 Y 5 X 1 Y 5 X 1 Y 5 X 2
 Y 5 X -6 Y 5 X 3 Y 6 X 1 Y 5 X -2 Y 5 X 1 Y 5 X 1 Y 5 X -1 Y 5 X -3 Y 11 X 7 Y 5 X -4 Y 5 X -1 Y 5 X 1 Y 5 X -2 Y 16 X -1 Y 5 X 1 Y 5 X -2 Y 5 X 2 Y 5 X -1 Y 11 X -1 Y 5 X 3 Y 5 X -1 Y 5 X -2 Y 5 X 2 Y 5 X 3 Y 6 X -3 Y 5 X -2 Y 5 X 2 Y 10 X -2 Y 16
 X 1 Y 10 X -1 Y 5 X -1 Y 5 X 1 Y 5 X -1 Y 6 X 1 Y 5 X -1 Y 5 X 1 Y 10 X 1 Y 11 X -2 Y 5 X 1 Y 15 X 1 Y 5 X -2 Y 5 X 1 Y 6 X -1 Y 5 X 1 Y 5 X -1 Y 5 X 1 Y 10 X -1 Y 6 X 1 Y 5 X -1 Y 5 X 1 Y 5 X -1 Y 52 X 1 Y 5 X -1 Y 15 X 1 Y 10 X -1 Y 37 X 1 Y 5 X
 -1 Y 25 X 1 Y 6 X -1 Y 25 X 1 Y 6 X -1 Y 82 X 1 Y 5 X -1 Y 93 X s 227 111 m 1814 X s 232 138 m -27 Y s 283 124 m -13 Y s 335 124 m -13 Y s 387 124 m -13 Y s 438 124 m -13 Y s 490 138 m -27 Y s 541 124 m -13 Y s 593 124 m -13 Y s 644 124 m -13 Y s
 696 124 m -13 Y s 747 138 m -27 Y s 799 124 m -13 Y s 850 124 m -13 Y s 902 124 m -13 Y s 953 124 m -13 Y s 1005 138 m -27 Y s 1057 124 m -13 Y s 1108 124 m -13 Y s 1160 124 m -13 Y s 1211 124 m -13 Y s 1263 138 m -27 Y s 1314 124 m -13 Y s 1366 124
 m -13 Y s 1417 124 m -13 Y s 1469 124 m -13 Y s 1520 138 m -27 Y s 1572 124 m -13 Y s 1623 124 m -13 Y s 1675 124 m -13 Y s 1727 124 m -13 Y s 1778 138 m -27 Y s 1830 124 m -13 Y s 1881 124 m -13 Y s 1933 124 m -13 Y s 1984 124 m -13 Y s 2036 138 m
 -27 Y s 232 138 m -27 Y s 2036 138 m -27 Y s
 gsave  2268 1111 0 0 C 218.525 70.0931 t 0 r /Helvetica-Bold findfont 41.2312 sf 0 0 m (0) show NC gr 
 gsave  2268 1111 0 0 C 476.22 70.0931 t 0 r /Helvetica-Bold findfont 41.2312 sf 0 0 m (5) show NC gr 
 gsave  2268 1111 0 0 C 723.608 70.0931 t 0 r /Helvetica-Bold findfont 41.2312 sf 0 0 m (10) show NC gr 
 gsave  2268 1111 0 0 C 981.303 70.0931 t 0 r /Helvetica-Bold findfont 41.2312 sf 0 0 m (15) show NC gr 
 gsave  2268 1111 0 0 C 1239 70.0931 t 0 r /Helvetica-Bold findfont 41.2312 sf 0 0 m (20) show NC gr 
 gsave  2268 1111 0 0 C 1496.69 70.0931 t 0 r /Helvetica-Bold findfont 41.2312 sf 0 0 m (25) show NC gr 
 gsave  2268 1111 0 0 C 1754.39 70.0931 t 0 r /Helvetica-Bold findfont 41.2312 sf 0 0 m (30) show NC gr 
 gsave  2268 1111 0 0 C 2012.08 70.0931 t 0 r /Helvetica-Bold findfont 41.2312 sf 0 0 m (35) show NC gr  227 111 m 889 Y s 281 111 m -54 X s 254 144 m -27 X s 254 178 m -27 X s 254 211 m -27 X s 281 244 m -54 X s 254 278 m -27 X s 254 311 m -27 X s
 254 344 m -27 X s 281 378 m -54 X s 254 411 m -27 X s 254 444 m -27 X s 254 478 m -27 X s 281 511 m -54 X s 254 544 m -27 X s 254 578 m -27 X s 254 611 m -27 X s 281 644 m -54 X s 254 678 m -27 X s 254 711 m -27 X s 254 744 m -27 X s 281 778 m -54 X
 s 254 811 m -27 X s 254 844 m -27 X s 254 878 m -27 X s 281 911 m -54 X s 281 911 m -54 X s 254 944 m -27 X s 254 978 m -27 X s
 gsave  2268 1111 0 0 C 191.725 94.8318 t 0 r /Helvetica-Bold findfont 41.2312 sf 0 0 m (0) show NC gr 
 gsave  2268 1111 0 0 C 146.371 228.833 t 0 r /Helvetica-Bold findfont 41.2312 sf 0 0 m (200) show NC gr 
 gsave  2268 1111 0 0 C 146.371 362.835 t 0 r /Helvetica-Bold findfont 41.2312 sf 0 0 m (400) show NC gr 
 gsave  2268 1111 0 0 C 146.371 494.775 t 0 r /Helvetica-Bold findfont 41.2312 sf 0 0 m (600) show NC gr 
 gsave  2268 1111 0 0 C 146.371 628.776 t 0 r /Helvetica-Bold findfont 41.2312 sf 0 0 m (800) show NC gr 
 gsave  2268 1111 0 0 C 123.694 762.777 t 0 r /Helvetica-Bold findfont 41.2312 sf 0 0 m (1000) show NC gr 
 gsave  2268 1111 0 0 C 123.694 894.717 t 0 r /Helvetica-Bold findfont 41.2312 sf 0 0 m (1200) show NC gr  1 1 1 c 453 178 1769 861 bf black 1769 861 m 453 X s 2222 861 m 178 Y s 2222 1039 m -453 X s 1769 1039 m -178 Y s 1 1 1 c black
 gsave  2268 1111 0 0 C 1944.05 1001.92 t 0 r /Helvetica findfont 39.1696 sf 0 0 m (TotSc) show NC gr  1769 995 m 453 X s
 gsave  2268 1111 0 0 C 1791.5 958.626 t 0 r /Helvetica findfont 39.1696 sf 0 0 m (Entries ) show NC gr 
 gsave  2268 1111 0 0 C 2086.3 958.626 t 0 r /Helvetica findfont 39.1696 sf 0 0 m ( 99211) show NC gr 
 gsave  2268 1111 0 0 C 1791.5 915.333 t 0 r /Helvetica findfont 39.1696 sf 0 0 m (Mean  ) show NC gr 
 gsave  2268 1111 0 0 C 2080.11 915.333 t 0 r /Helvetica findfont 39.1696 sf 0 0 m (  5.715) show NC gr 
 gsave  2268 1111 0 0 C 1791.5 867.917 t 0 r /Helvetica findfont 39.1696 sf 0 0 m (RMS   ) show NC gr 
 gsave  2268 1111 0 0 C 2080.11 869.979 t 0 r /Helvetica findfont 39.1696 sf 0 0 m (  3.859) show NC gr  1 1 1 c black
 gsave  2268 1111 0 0 C 931.825 1055.52 t 0 r /Helvetica findfont 55.6621 sf 0 0 m (TotEdep 80 GeV 0.5mm Pb) show NC gr 
 gr  gr showpage
end
%%EOF
