%!PS-Adobe-2.0 EPSF-2.0
%%BoundingBox:  0 0 567 278
%%Title: /home/smfx/SRdetector/NewGeom17m/TotEdep80Gev.eps: Canvas_1
%%Creator: ROOT Version 5.34/07
%%CreationDate: Thu Nov 26 20:55:48 2015
%%EndComments
%%BeginProlog
80 dict begin
/s {stroke} def /l {lineto} def /m {moveto} def /t {translate} def
/r {rotate} def /rl {roll}  def /R {repeat} def
/d {rlineto} def /rm {rmoveto} def /gr {grestore} def /f {eofill} def
/c {setrgbcolor} def /black {0 setgray} def /sd {setdash} def
/cl {closepath} def /sf {scalefont setfont} def /lw {setlinewidth} def
/box {m dup 0 exch d exch 0 d 0 exch neg d cl} def
/NC{systemdict begin initclip end}def/C{NC box clip newpath}def
/bl {box s} def /bf {box f} def /Y { 0 exch d} def /X { 0 d} def 
/K {{pop pop 0 moveto} exch kshow} bind def
/ita {/ang 15 def gsave [1 0 ang dup sin exch cos div 1 0 0] concat} def 
/mp {newpath /y exch def /x exch def} def
/side {[w .77 mul w .23 mul] .385 w mul sd w 0 l currentpoint t -144 r} def
/mr {mp x y w2 0 360 arc} def /m24 {mr s} def /m20 {mr f} def
/mb {mp x y w2 add m w2 neg 0 d 0 w neg d w 0 d 0 w d cl} def
/mt {mp x y w2 add m w2 neg w neg d w 0 d cl} def
/m21 {mb f} def /m25 {mb s} def /m22 {mt f} def /m26{mt s} def
/m23 {mp x y w2 sub m w2 w d w neg 0 d cl f} def
/m27 {mp x y w2 add m w3 neg w2 neg d w3 w2 neg d w3 w2 d cl s} def
/m28 {mp x w2 sub y w2 sub w3 add m w3 0 d  0 w3 neg d w3 0 d 0 w3 d w3 0 d  0 w3 d w3 neg 0 d 0 w3 d w3 neg 0 d 0 w3 neg d w3 neg 0 d cl s } def
/m29 {mp gsave x w2 sub y w2 add w3 sub m currentpoint t 4 {side} repeat cl fill gr} def
/m30 {mp gsave x w2 sub y w2 add w3 sub m currentpoint t 4 {side} repeat cl s gr} def
/m31 {mp x y w2 sub m 0 w d x w2 sub y m w 0 d x w2 sub y w2 add m w w neg d x w2 sub y w2 sub m w w d s} def
/m32 {mp x y w2 sub m w2 w d w neg 0 d cl s} def
/m33 {mp x y w2 add m w3 neg w2 neg d w3 w2 neg d w3 w2 d cl f} def
/m34 {mp x w2 sub y w2 sub w3 add m w3 0 d  0 w3 neg d w3 0 d 0 w3 d w3 0 d  0 w3 d w3 neg 0 d 0 w3 d w3 neg 0 d 0 w3 neg d w3 neg 0 d cl f } def
/m2 {mp x y w2 sub m 0 w d x w2 sub y m w 0 d s} def
/m5 {mp x w2 sub y w2 sub m w w d x w2 sub y w2 add m w w neg d s} def
/reEncode {exch findfont dup length dict begin {1 index /FID eq  {pop pop} {def} ifelse } forall /Encoding exch def currentdict end dup /FontName get exch definefont pop } def [/Times-Bold /Times-Italic /Times-BoldItalic /Helvetica /Helvetica-Oblique
 /Helvetica-Bold /Helvetica-BoldOblique /Courier /Courier-Oblique /Courier-Bold /Courier-BoldOblique /Times-Roman /AvantGarde-Book /AvantGarde-BookOblique /AvantGarde-Demi /AvantGarde-DemiOblique /Bookman-Demi /Bookman-DemiItalic /Bookman-Light
 /Bookman-LightItalic /Helvetica-Narrow /Helvetica-Narrow-Bold /Helvetica-Narrow-BoldOblique /Helvetica-Narrow-Oblique /NewCenturySchlbk-Roman /NewCenturySchlbk-Bold /NewCenturySchlbk-BoldItalic /NewCenturySchlbk-Italic /Palatino-Bold
 /Palatino-BoldItalic /Palatino-Italic /Palatino-Roman ] {ISOLatin1Encoding reEncode } forall
%%EndProlog
%%BeginSetup
%%EndSetup
newpath  gsave  .25 .25 scale  gsave  0 0 t black[  ] 0 sd 3 lw 1 1 1 c 2268 1111 0 0 bf black 1 1 1 c 1814 889 227 111 bf black 1814 889 227 111 bl 1 1 1 c 1814 889 227 111 bf black 1814 889 227 111 bl 227 111 m 1814 X s[ 4 8] 0 sd 234 1000 m -889 Y
 s 590 1000 m -889 Y s 945 1000 m -889 Y s 1301 1000 m -889 Y s 1657 1000 m -889 Y s 2012 1000 m -889 Y s 234 1000 m -889 Y s 2012 1000 m -889 Y s[  ] 0 sd 227 111 m 889 Y s 6 lw 1 1 1 c black 3 lw /w 2 def /w2 {w 2 div} def /w3 {w 3 div} def 230 111
 m20 6 lw 3 lw 237 478 m20 6 lw 3 lw 245 491 m20 6 lw 3 lw 252 677 m20 6 lw 3 lw 259 699 m20 6 lw 3 lw 266 697 m20 6 lw 3 lw 273 718 m20 6 lw 3 lw 280 743 m20 6 lw 3 lw 287 773 m20 6 lw 3 lw 294 805 m20 6 lw 3 lw 301 767 m20 6 lw 3 lw 309 843 m20 6
 lw 3 lw 316 852 m20 6 lw 3 lw 323 839 m20 6 lw 3 lw 330 894 m20 6 lw 3 lw 337 861 m20 6 lw 3 lw 344 905 m20 6 lw 3 lw 351 892 m20 6 lw 3 lw 358 917 m20 6 lw 3 lw 366 905 m20 6 lw 3 lw 373 938 m20 6 lw 3 lw 380 904 m20 6 lw 3 lw 387 907 m20 6 lw 3 lw
 394 868 m20 6 lw 3 lw 401 931 m20 6 lw 3 lw 408 878 m20 6 lw 3 lw 415 934 m20 6 lw 3 lw 422 887 m20 6 lw 3 lw 430 885 m20 6 lw 3 lw 437 873 m20 6 lw 3 lw 444 869 m20 6 lw 3 lw 451 839 m20 6 lw 3 lw 458 815 m20 6 lw 3 lw 465 801 m20 6 lw 3 lw 472 817
 m20 6 lw 3 lw 479 813 m20 6 lw 3 lw 486 809 m20 6 lw 3 lw 494 789 m20 6 lw 3 lw 501 792 m20 6 lw 3 lw 508 769 m20 6 lw 3 lw 515 752 m20 6 lw 3 lw 522 717 m20 6 lw 3 lw 529 717 m20 6 lw 3 lw 536 688 m20 6 lw 3 lw 543 706 m20 6 lw 3 lw 550 687 m20 6
 lw 3 lw 558 634 m20 6 lw 3 lw 565 655 m20 6 lw 3 lw 572 645 m20 6 lw 3 lw 579 636 m20 6 lw 3 lw 586 619 m20 6 lw 3 lw 593 616 m20 6 lw 3 lw 600 580 m20 6 lw 3 lw 607 576 m20 6 lw 3 lw 615 580 m20 6 lw 3 lw 622 552 m20 6 lw 3 lw 629 516 m20 6 lw 3 lw
 636 504 m20 6 lw 3 lw 643 511 m20 6 lw 3 lw 650 491 m20 6 lw 3 lw 657 481 m20 6 lw 3 lw 664 474 m20 6 lw 3 lw 671 444 m20 6 lw 3 lw 679 439 m20 6 lw 3 lw 686 447 m20 6 lw 3 lw 693 413 m20 6 lw 3 lw 700 417 m20 6 lw 3 lw 707 384 m20 6 lw 3 lw 714 394
 m20 6 lw 3 lw 721 395 m20 6 lw 3 lw 728 377 m20 6 lw 3 lw 735 373 m20 6 lw 3 lw 743 356 m20 6 lw 3 lw 750 335 m20 6 lw 3 lw 757 346 m20 6 lw 3 lw 764 365 m20 6 lw 3 lw 771 331 m20 6 lw 3 lw 778 315 m20 6 lw 3 lw 785 327 m20 6 lw 3 lw 792 308 m20 6
 lw 3 lw 799 304 m20 6 lw 3 lw 807 294 m20 6 lw 3 lw 814 292 m20 6 lw 3 lw 821 274 m20 6 lw 3 lw 828 277 m20 6 lw 3 lw 835 257 m20 6 lw 3 lw 842 264 m20 6 lw 3 lw 849 257 m20 6 lw 3 lw 856 247 m20 6 lw 3 lw 864 242 m20 6 lw 3 lw 871 242 m20 6 lw 3 lw
 878 233 m20 6 lw 3 lw 885 226 m20 6 lw 3 lw 892 233 m20 6 lw 3 lw 899 216 m20 6 lw 3 lw 906 212 m20 6 lw 3 lw 913 199 m20 6 lw 3 lw 920 203 m20 6 lw 3 lw 928 196 m20 6 lw 3 lw 935 195 m20 6 lw 3 lw 942 210 m20 6 lw 3 lw 949 193 m20 6 lw 3 lw 956 183
 m20 6 lw 3 lw 963 188 m20 6 lw 3 lw 970 171 m20 6 lw 3 lw 977 179 m20 6 lw 3 lw 984 176 m20 6 lw 3 lw 992 180 m20 6 lw 3 lw 999 174 m20 6 lw 3 lw 1006 179 m20 6 lw 3 lw 1013 163 m20 6 lw 3 lw 1020 154 m20 6 lw 3 lw 1027 167 m20 6 lw 3 lw 1034 163
 m20 6 lw 3 lw 1041 158 m20 6 lw 3 lw 1048 156 m20 6 lw 3 lw 1056 159 m20 6 lw 3 lw 1063 155 m20 6 lw 3 lw 1070 151 m20 6 lw 3 lw 1077 153 m20 6 lw 3 lw 1084 146 m20 6 lw 3 lw 1091 147 m20 6 lw 3 lw 1098 139 m20 6 lw 3 lw 1105 142 m20 6 lw 3 lw 1113
 141 m20 6 lw 3 lw 1120 139 m20 6 lw 3 lw 1127 135 m20 6 lw 3 lw 1134 139 m20 6 lw 3 lw 1141 143 m20 6 lw 3 lw 1148 136 m20 6 lw 3 lw 1155 136 m20 6 lw 3 lw 1162 135 m20 6 lw 3 lw 1169 126 m20 6 lw 3 lw 1177 130 m20 6 lw 3 lw 1184 126 m20 6 lw 3 lw
 1191 130 m20 6 lw 3 lw 1198 127 m20 6 lw 3 lw 1205 127 m20 6 lw 3 lw 1212 126 m20 6 lw 3 lw 1219 131 m20 6 lw 3 lw 1226 122 m20 6 lw 3 lw 1233 121 m20 6 lw 3 lw 1241 125 m20 6 lw 3 lw 1248 129 m20 6 lw 3 lw 1255 125 m20 6 lw 3 lw 1262 123 m20 6 lw 3
 lw 1269 122 m20 6 lw 3 lw 1276 126 m20 6 lw 3 lw 1283 121 m20 6 lw 3 lw 1290 124 m20 6 lw 3 lw 1297 123 m20 6 lw 3 lw 1305 121 m20 6 lw 3 lw 1312 118 m20 6 lw 3 lw 1319 119 m20 6 lw 3 lw 1326 117 m20 6 lw 3 lw 1333 119 m20 6 lw 3 lw 1340 116 m20 6
 lw 3 lw 1347 117 m20 6 lw 3 lw 1354 118 m20 6 lw 3 lw 1362 116 m20 6 lw 3 lw 1369 119 m20 6 lw 3 lw 1376 117 m20 6 lw 3 lw 1383 114 m20 6 lw 3 lw 1390 116 m20 6 lw 3 lw 1397 116 m20 6 lw 3 lw 1404 117 m20 6 lw 3 lw 1411 115 m20 6 lw 3 lw 1418 115
 m20 6 lw 3 lw 1426 116 m20 6 lw 3 lw 1433 116 m20 6 lw 3 lw 1440 116 m20 6 lw 3 lw 1447 113 m20 6 lw 3 lw 1454 114 m20 6 lw 3 lw 1461 114 m20 6 lw 3 lw 1468 116 m20 6 lw 3 lw 1475 113 m20 6 lw 3 lw 1482 115 m20 6 lw 3 lw 1490 113 m20 6 lw 3 lw 1497
 112 m20 6 lw 3 lw 1504 114 m20 6 lw 3 lw 1511 113 m20 6 lw 3 lw 1518 114 m20 6 lw 3 lw 1525 115 m20 6 lw 3 lw 1532 113 m20 6 lw 3 lw 1539 115 m20 6 lw 3 lw 1546 112 m20 6 lw 3 lw 1554 112 m20 6 lw 3 lw 1561 113 m20 6 lw 3 lw 1568 114 m20 6 lw 3 lw
 1575 113 m20 6 lw 3 lw 1582 111 m20 6 lw 3 lw 1589 112 m20 6 lw 3 lw 1596 111 m20 6 lw 3 lw 1603 111 m20 6 lw 3 lw 1611 111 m20 6 lw 3 lw 1618 113 m20 6 lw 3 lw 1625 112 m20 6 lw 3 lw 1632 112 m20 6 lw 3 lw 1639 112 m20 6 lw 3 lw 1646 113 m20 6 lw 3
 lw 1653 114 m20 6 lw 3 lw 1660 112 m20 6 lw 3 lw 1667 111 m20 6 lw 3 lw 1675 113 m20 6 lw 3 lw 1682 113 m20 6 lw 3 lw 1689 112 m20 6 lw 3 lw 1696 112 m20 6 lw 3 lw 1703 112 m20 6 lw 3 lw 1710 111 m20 6 lw 3 lw 1717 112 m20 6 lw 3 lw 1724 111 m20 6
 lw 3 lw 1731 111 m20 6 lw 3 lw 1739 112 m20 6 lw 3 lw 1746 111 m20 6 lw 3 lw 1753 112 m20 6 lw 3 lw 1760 112 m20 6 lw 3 lw 1767 112 m20 6 lw 3 lw 1774 112 m20 6 lw 3 lw 1781 112 m20 6 lw 3 lw 1788 112 m20 6 lw 3 lw 1795 112 m20 6 lw 3 lw 1803 111
 m20 6 lw 3 lw 1810 111 m20 6 lw 3 lw 1817 111 m20 6 lw 3 lw 1824 112 m20 6 lw 3 lw 1831 111 m20 6 lw 3 lw 1838 111 m20 6 lw 3 lw 1845 111 m20 6 lw 3 lw 1852 111 m20 6 lw 3 lw 1860 111 m20 6 lw 3 lw 1867 112 m20 6 lw 3 lw 1874 112 m20 6 lw 3 lw 1881
 111 m20 6 lw 3 lw 1888 111 m20 6 lw 3 lw 1895 111 m20 6 lw 3 lw 1902 112 m20 6 lw 3 lw 1909 112 m20 6 lw 3 lw 1916 111 m20 6 lw 3 lw 1924 112 m20 6 lw 3 lw 1931 112 m20 6 lw 3 lw 1938 111 m20 6 lw 3 lw 1945 111 m20 6 lw 3 lw 1952 111 m20 6 lw 3 lw
 1959 111 m20 6 lw 3 lw 1966 111 m20 6 lw 3 lw 1973 111 m20 6 lw 3 lw 1980 111 m20 6 lw 3 lw 1988 111 m20 6 lw 3 lw 1995 111 m20 6 lw 3 lw 2002 111 m20 6 lw 3 lw 2009 111 m20 6 lw 3 lw 2016 111 m20 6 lw 3 lw 2023 111 m20 6 lw 3 lw 2030 111 m20 6 lw 3
 lw 2037 111 m20 6 lw 1 1 1 c black 3 lw 1 1 1 c 230 111 m 7 380 d 8 13 d 7 190 d 7 22 d 7 -2 d 7 22 d 7 25 d 7 30 d 7 32 d 7 -39 d 8 78 d 7 9 d 7 -13 d 7 55 d 7 -33 d 7 45 d 7 -14 d 7 26 d 8 -12 d 7 33 d 7 -34 d 7 3 d 7 -40 d 7 64 d 7 -54 d 7 57 d 7
 -48 d 8 -2 d 7 -11 d 7 -5 d 7 -30 d 7 -25 d 7 -13 d 7 15 d 7 -4 d 7 -3 d 8 -21 d 7 4 d 7 -24 d 7 -17 d 7 -35 d 7 -1 d 7 -30 d 7 19 d 7 -20 d 8 -53 d 7 22 d 7 -11 d 7 -10 d 7 -16 d 7 -3 d 7 -36 d 7 -5 d 8 4 d 7 -29 d 7 -36 d 7 -12 d 7 7 d 7 -21 d 7
 -10 d 7 -7 d 7 -30 d 8 -5 d 7 8 d 7 -35 d 7 4 d 7 -34 d 7 11 d 7 1 d 7 -18 d 7 -5 d 8 -17 d 7 -21 d 7 10 d 7 20 d 7 -35 d 7 -16 d 7 12 d 7 -19 d 7 -5 d 8 -10 d 7 -2 d 7 -18 d 7 3 d 7 -20 d 7 6 d 7 -7 d 7 -10 d 8 -5 d 7 X 7 -9 d 7 -7 d 7 7 d 7 -18 d
 7 -3 d 7 -14 d 7 3 d 8 -7 d 7 X 7 15 d 7 -17 d 7 -11 d 7 5 d 7 -18 d 7 9 d 7 -3 d 8 4 d 7 -6 d 7 5 d 7 -17 d 7 -10 d 7 14 d 7 -4 d 7 -5 d 7 -2 d 8 3 d 7 -4 d 7 -5 d 7 3 d 7 -8 d 7 1 d 7 -8 d 7 3 d 8 -1 d 7 -2 d 7 -4 d 7 4 d 7 4 d 7 -7 d 7 -1 d 7 X 7
 -10 d 8 4 d 7 -4 d 7 4 d 7 -4 d 7 1 d 7 -2 d 7 6 d 7 -9 d 7 -2 d 8 5 d 7 4 d 7 -5 d 7 -1 d 7 -2 d 7 4 d 7 -4 d 7 2 d 7 X 8 -3 d 7 -3 d 7 1 d 7 -2 d 7 2 d 7 -4 d 7 2 d 7 1 d 8 -2 d 7 3 d 7 -2 d 7 -4 d 7 2 d 7 1 d 7 1 d 7 -3 d 7 X 8 2 d 14 X 7 -4 d 7
 1 d 7 X 7 2 d 7 -3 d 7 2 d 8 -2 d 7 -2 d 7 3 d 7 -2 d 7 2 d 7 1 d 7 -3 d 7 3 d 7 -3 d 8 X 7 1 d 7 1 d 7 -1 d 7 -3 d 7 1 d 7 -1 d 15 X 7 2 d 28 X 7 2 d 7 -3 d 7 -1 d 8 2 d 14 X 7 -1 d 7 X 7 -1 d 7 1 d 7 -1 d 7 X 8 1 d 7 -1 d 7 1 d 42 X 8 -1 d 14 X 7
 1 d 7 -1 d 29 X 7 1 d 7 X 7 -1 d 14 X 7 1 d 7 X 7 -1 d 8 1 d 7 X 7 -1 d 99 X -348 X -7 1 d -7 X -8 -1 d -7 X -7 2 d -7 -1 d -7 -1 d -14 X -7 1 d -7 -1 d -29 X -7 1 d -14 X -7 -1 d -8 X -7 2 d -7 -1 d -7 2 d -7 -1 d -7 -1 d -7 X -7 -1 d -7 1 d -8 2 d
 -7 -2 d -7 2 d -7 -2 d -7 1 d -7 -1 d -7 2 d -22 X -7 -1 d -7 3 d -7 -1 d -7 -1 d -7 -2 d -7 3 d -7 2 d -7 -3 d -8 2 d -7 -1 d -7 -1 d -7 3 d -7 -2 d -7 2 d -7 X -7 2 d -8 2 d -7 X -7 -2 d -7 4 d -7 -3 d -7 1 d -7 1 d -7 4 d -7 -3 d -8 -4 d -7 1 d
 -7 8 d -7 -5 d -7 1 d -7 X -7 3 d -7 -3 d -7 3 d -8 -3 d -7 8 d -7 X -7 1 d -7 6 d -7 -4 d -7 -3 d -7 3 d -7 2 d -8 1 d -7 -2 d -7 7 d -7 -1 d -7 7 d -7 -2 d -7 4 d -7 4 d -8 -3 d -7 2 d -7 4 d -7 4 d -7 -13 d -7 9 d -7 15 d -7 -5 d -7 6 d -8 -3 d
 -7 2 d -7 -8 d -7 17 d -7 -5 d -7 10 d -7 16 d -7 -14 d -7 X -8 7 d -7 -3 d -7 12 d -7 4 d -7 16 d -7 -6 d -7 6 d -7 9 d -7 X -8 5 d -7 9 d -7 7 d -7 -6 d -7 19 d -7 -3 d -7 18 d -7 1 d -8 10 d -7 4 d -7 19 d -7 -12 d -7 16 d -7 33 d -7 -19 d -7 -10
 d -7 20 d -8 17 d -7 4 d -7 17 d -7 X -7 -11 d -7 33 d -7 -4 d -7 33 d -7 -8 d -8 5 d -7 29 d -7 7 d -7 10 d -7 20 d -7 -7 d -7 12 d -7 35 d -7 28 d -8 -4 d -7 4 d -7 36 d -7 3 d -7 16 d -7 9 d -7 10 d -7 -21 d -8 52 d -7 19 d -7 -18 d -7 29 d -7 X
 -7 34 d -7 17 d -7 23 d -7 -3 d -8 20 d -7 3 d -7 4 d -7 -15 d -7 13 d -7 24 d -7 30 d -7 4 d -7 12 d -8 2 d -7 46 d -7 -56 d -7 53 d -7 -62 d -7 38 d -7 -3 d -7 34 d -7 -32 d -8 11 d -7 -25 d -7 13 d -7 -43 d -7 32 d -7 -54 d -7 13 d -7 -9 d -8 -75
 d -7 37 d -7 -31 d -7 -29 d -7 -25 d -7 -21 d -7 2 d -7 -22 d -7 -183 d -8 -13 d -7 -353 d cl s 6 lw black 1 1 1 c black 227 111 m 7 X 367 Y 7 X 13 Y 7 X 186 Y 7 X 22 Y 7 X -2 Y 7 X 21 Y 8 X 25 Y 7 X 30 Y 7 X 32 Y 7 X -38 Y 7 X 76 Y 7 X 9 Y 7 X -13
 Y 7 X 55 Y 7 X -33 Y 8 X 44 Y 7 X -13 Y 7 X 25 Y 7 X -12 Y 7 X 33 Y 7 X -34 Y 7 X 3 Y 7 X -39 Y 8 X 63 Y 7 X -53 Y 7 X 56 Y 7 X -47 Y 7 X -2 Y 7 X -12 Y 7 X -4 Y 7 X -30 Y 7 X -24 Y 8 X -14 Y 7 X 16 Y 7 X -4 Y 7 X -4 Y 7 X -20 Y 7 X 3 Y 7 X -23 Y 7
 X -17 Y 7 X -35 Y 15 X -29 Y 7 X 18 Y 7 X -19 Y 7 X -53 Y 7 X 21 Y 7 X -10 Y 7 X -9 Y 7 X -17 Y 8 X -3 Y 7 X -36 Y 7 X -4 Y 7 X 4 Y 7 X -28 Y 7 X -36 Y 7 X -12 Y 7 X 7 Y 8 X -20 Y 7 X -10 Y 7 X -7 Y 7 X -30 Y 7 X -5 Y 7 X 8 Y 7 X -34 Y 7 X 4 Y 7 X
 -33 Y 8 X 10 Y 7 X 1 Y 7 X -18 Y 7 X -4 Y 7 X -17 Y 7 X -21 Y 7 X 11 Y 7 X 19 Y 7 X -34 Y 8 X -16 Y 7 X 12 Y 7 X -19 Y 7 X -4 Y 7 X -10 Y 7 X -2 Y 7 X -18 Y 7 X 3 Y 7 X -20 Y 8 X 7 Y 7 X -7 Y 7 X -10 Y 7 X -5 Y 14 X -9 Y 7 X -7 Y 7 X 7 Y 8 X -17 Y 7
 X -4 Y 7 X -13 Y 7 X 4 Y 7 X -7 Y 7 X -1 Y 7 X 15 Y 7 X -17 Y 7 X -10 Y 8 X 5 Y 7 X -17 Y 7 X 8 Y 7 X -3 Y 7 X 4 Y 7 X -6 Y 7 X 5 Y 7 X -16 Y 7 X -9 Y 8 X 13 Y 7 X -4 Y 7 X -5 Y 7 X -2 Y 7 X 3 Y 7 X -4 Y 7 X -4 Y 7 X 2 Y 8 X -7 Y 7 X 1 Y 7 X -8 Y 7
 X 3 Y 7 X -1 Y 7 X -2 Y 7 X -4 Y 7 X 4 Y 7 X 4 Y 8 X -7 Y 14 X -1 Y 7 X -9 Y 7 X 4 Y 7 X -4 Y 7 X 4 Y 7 X -3 Y 15 X -1 Y 7 X 5 Y 7 X -9 Y 7 X -1 Y 7 X 4 Y 7 X 4 Y 7 X -4 Y 7 X -2 Y 7 X -1 Y 8 X 4 Y 7 X -5 Y 7 X 3 Y 7 X -1 Y 7 X -2 Y 7 X -3 Y 7 X 1 Y
 7 X -2 Y 8 X 2 Y 7 X -3 Y 7 X 1 Y 7 X 1 Y 7 X -2 Y 7 X 3 Y 7 X -2 Y 7 X -3 Y 7 X 2 Y 15 X 1 Y 7 X -2 Y 14 X 1 Y 21 X -3 Y 7 X 1 Y 15 X 2 Y 7 X -3 Y 7 X 2 Y 7 X -2 Y 7 X -1 Y 7 X 2 Y 7 X -1 Y 7 X 1 Y 8 X 1 Y 7 X -2 Y 7 X 2 Y 7 X -3 Y 14 X 1 Y 7 X 1 Y
 7 X -1 Y 8 X -2 Y 7 X 1 Y 7 X -1 Y 21 X 2 Y 7 X -1 Y 22 X 1 Y 7 X 1 Y 7 X -2 Y 7 X -1 Y 7 X 2 Y 14 X -1 Y 22 X -1 Y 7 X 1 Y 7 X -1 Y 14 X 1 Y 7 X -1 Y 7 X 1 Y 50 X -1 Y 21 X 1 Y 8 X -1 Y 35 X 1 Y 14 X -1 Y 22 X 1 Y 14 X -1 Y 7 X 1 Y 14 X -1 Y 107 X
 s 3 lw 227 111 m 1814 X s 234 138 m -27 Y s 305 124 m -13 Y s 376 124 m -13 Y s 447 124 m -13 Y s 518 124 m -13 Y s 590 138 m -27 Y s 661 124 m -13 Y s 732 124 m -13 Y s 803 124 m -13 Y s 874 124 m -13 Y s 945 138 m -27 Y s 1016 124 m -13 Y s 1088
 124 m -13 Y s 1159 124 m -13 Y s 1230 124 m -13 Y s 1301 138 m -27 Y s 1372 124 m -13 Y s 1443 124 m -13 Y s 1514 124 m -13 Y s 1586 124 m -13 Y s 1657 138 m -27 Y s 1728 124 m -13 Y s 1799 124 m -13 Y s 1870 124 m -13 Y s 1941 124 m -13 Y s 2012
 138 m -27 Y s 234 138 m -27 Y s 2012 138 m -27 Y s
 gsave  2268 1111 0 0 C 220.587 70.0931 t 0 r /Helvetica-Bold findfont 41.2312 sf 0 0 m (0) show NC gr 
 gsave  2268 1111 0 0 C 577.237 70.0931 t 0 r /Helvetica-Bold findfont 41.2312 sf 0 0 m (5) show NC gr 
 gsave  2268 1111 0 0 C 921.518 70.0931 t 0 r /Helvetica-Bold findfont 41.2312 sf 0 0 m (10) show NC gr 
 gsave  2268 1111 0 0 C 1278.17 70.0931 t 0 r /Helvetica-Bold findfont 41.2312 sf 0 0 m (15) show NC gr 
 gsave  2268 1111 0 0 C 1632.76 70.0931 t 0 r /Helvetica-Bold findfont 41.2312 sf 0 0 m (20) show NC gr 
 gsave  2268 1111 0 0 C 1989.41 70.0931 t 0 r /Helvetica-Bold findfont 41.2312 sf 0 0 m (25) show NC gr  227 111 m 889 Y s 281 111 m -54 X s 254 135 m -27 X s 254 160 m -27 X s 254 184 m -27 X s 281 209 m -54 X s 254 233 m -27 X s 254 257 m -27 X s
 254 282 m -27 X s 281 306 m -54 X s 254 330 m -27 X s 254 355 m -27 X s 254 379 m -27 X s 281 404 m -54 X s 254 428 m -27 X s 254 452 m -27 X s 254 477 m -27 X s 281 501 m -54 X s 254 525 m -27 X s 254 550 m -27 X s 254 574 m -27 X s 281 598 m -54 X
 s 254 623 m -27 X s 254 647 m -27 X s 254 672 m -27 X s 281 696 m -54 X s 254 720 m -27 X s 254 745 m -27 X s 254 769 m -27 X s 281 793 m -54 X s 254 818 m -27 X s 254 842 m -27 X s 254 867 m -27 X s 281 891 m -54 X s 254 915 m -27 X s 254 940 m -27
 X s 254 964 m -27 X s 281 988 m -54 X s 281 988 m -54 X s
 gsave  2268 1111 0 0 C 191.725 94.8318 t 0 r /Helvetica-Bold findfont 41.2312 sf 0 0 m (0) show NC gr 
 gsave  2268 1111 0 0 C 146.371 193.787 t 0 r /Helvetica-Bold findfont 41.2312 sf 0 0 m (200) show NC gr 
 gsave  2268 1111 0 0 C 146.371 290.68 t 0 r /Helvetica-Bold findfont 41.2312 sf 0 0 m (400) show NC gr 
 gsave  2268 1111 0 0 C 146.371 387.573 t 0 r /Helvetica-Bold findfont 41.2312 sf 0 0 m (600) show NC gr 
 gsave  2268 1111 0 0 C 146.371 486.528 t 0 r /Helvetica-Bold findfont 41.2312 sf 0 0 m (800) show NC gr 
 gsave  2268 1111 0 0 C 123.694 583.422 t 0 r /Helvetica-Bold findfont 41.2312 sf 0 0 m (1000) show NC gr 
 gsave  2268 1111 0 0 C 123.694 680.315 t 0 r /Helvetica-Bold findfont 41.2312 sf 0 0 m (1200) show NC gr 
 gsave  2268 1111 0 0 C 123.694 777.208 t 0 r /Helvetica-Bold findfont 41.2312 sf 0 0 m (1400) show NC gr 
 gsave  2268 1111 0 0 C 123.694 876.163 t 0 r /Helvetica-Bold findfont 41.2312 sf 0 0 m (1600) show NC gr 
 gsave  2268 1111 0 0 C 123.694 973.057 t 0 r /Helvetica-Bold findfont 41.2312 sf 0 0 m (1800) show NC gr  1 1 1 c 453 178 1769 861 bf black 1769 861 m 453 X s 2222 861 m 178 Y s 2222 1039 m -453 X s 1769 1039 m -178 Y s 1 1 1 c black
 gsave  2268 1111 0 0 C 1944.05 1001.92 t 0 r /Helvetica findfont 39.1696 sf 0 0 m (TotSc) show NC gr  1769 995 m 453 X s
 gsave  2268 1111 0 0 C 1791.5 958.626 t 0 r /Helvetica findfont 39.1696 sf 0 0 m (Entries ) show NC gr 
 gsave  2268 1111 0 0 C 2080.11 958.626 t 0 r /Helvetica findfont 39.1696 sf 0 0 m ( 98145) show NC gr 
 gsave  2268 1111 0 0 C 1791.5 915.333 t 0 r /Helvetica findfont 39.1696 sf 0 0 m (Mean  ) show NC gr 
 gsave  2268 1111 0 0 C 2080.11 915.333 t 0 r /Helvetica findfont 39.1696 sf 0 0 m (  3.958) show NC gr 
 gsave  2268 1111 0 0 C 1791.5 867.917 t 0 r /Helvetica findfont 39.1696 sf 0 0 m (RMS   ) show NC gr 
 gsave  2268 1111 0 0 C 2086.3 869.979 t 0 r /Helvetica findfont 39.1696 sf 0 0 m (  2.861) show NC gr  1 1 1 c black
 gsave  2268 1111 0 0 C 931.825 1055.52 t 0 r /Helvetica findfont 55.6621 sf 0 0 m (TotEdep 80 Gev 0.8mm Pb) show NC gr 
 gr  gr showpage
end
%%EOF
